…
#lets look at a difference between a tibble and a data.frame
#tibbles only print first 10 rows and all columns that can fit on the screen, easier with large data sets

#lets have a look at examining data using tibble
```{r}
tibble(
  a = lubridate::now() + runif(1e3) * 86400,
  b = lubridate::today() + runif(1e3) * 30,
  c = 1:1e3,
  d = runif(1e3),
  e = sample(letters, 1e3, replace = TRUE)
)
#> # A tibble: 1,000 × 5
#>   a                   b              c     d e    
#>   <dttm>              <date>     <int> <dbl> <chr>
#> 1 2022-11-18 23:15:18 2022-11-25     1 0.368 n    
#> 2 2022-11-19 17:20:28 2022-11-30     2 0.612 l    
#> 3 2022-11-19 11:44:07 2022-12-10     3 0.415 p    
#> 4 2022-11-19 01:05:24 2022-12-09     4 0.212 m    
#> 5 2022-11-18 21:29:41 2022-12-06     5 0.733 i    
#> 6 2022-11-19 08:30:38 2022-12-02     6 0.460 n    
#> # ... with 994 more rows
```
…
### 5.5 Tidying data using Tidyr

#table1 is "tidy" once we look at the differences of these we will figure out what makes something tidy
table1
#> # A tibble: 6 × 4
#>   country      year  cases population
#>   <chr>       <int>  <int>      <int>
#> 1 Afghanistan  1999    745   19987071
#> 2 Afghanistan  2000   2666   20595360
#> 3 Brazil       1999  37737  172006362
#> 4 Brazil       2000  80488  174504898
#> 5 China        1999 212258 1272915272
#> 6 China        2000 213766 1280428583
table2
#> # A tibble: 12 × 4
#>   country      year type           count
#>   <chr>       <int> <chr>          <int>
#> 1 Afghanistan  1999 cases            745
#> 2 Afghanistan  1999 population  19987071
#> 3 Afghanistan  2000 cases           2666
#> 4 Afghanistan  2000 population  20595360
#> 5 Brazil       1999 cases          37737
#> 6 Brazil       1999 population 172006362
#> # ... with 6 more rows
…
#columns to pivot are specified with dplyr:: select() style notation.
#only two columns so we list them individually 
#1999 and 2000 are non-syntactic( dont start with a letter) so we have to surround them in backticks year and cases do nto exist in table4a so we put their names in quotes

#pivot_longer() makes datasets "longer" by increasing the number of rows and decreasing the number of columns

------

#using pivot_wider()
# to handle an observation scattered across multiple rows. pivot_wider() is the opposite of pivot_longer() in table2 we see an observation is a country in a year
#with the observation spread across two rows:
```{r}
table2
#> # A tibble: 12 × 4
#>   country      year type           count
#>   <chr>       <int> <chr>          <int>
#> 1 Afghanistan  1999 cases            745
#> 2 Afghanistan  1999 population  19987071
#> 3 Afghanistan  2000 cases           2666
#> 4 Afghanistan  2000 population  20595360
#> 5 Brazil       1999 cases          37737
#> 6 Brazil       1999 population 172006362
#> # ... with 6 more rows
```
…
